[gd_scene load_steps=3 format=1]

[ext_resource path="res://Scripts/rand_enemy.gd" type="Script" id=1]

[sub_resource type="Curve2D" id=1]

bake_interval = 5.0
_data = {
"points": Vector2Array( 0, 0, -117.511, 14.5934, 682.961, 124.574, 18.9261, -5.97283, -24.3675, -4.5125, 464.837, 67.287, 0, 0, -12.2209, 29.982, 288.924, 203.476, 15.6755, 8.73381, -16.6205, -3.3241, 90.7148, 317.144, 0, 0, 0, 0, 49.589, 338.656 )
}

[node name="Path2D" type="Path2D"]

transform/pos = Vector2( 1.47021, 6.61582 )
z/z = 10
curve = SubResource( 1 )

[node name="PathFollow2D" type="PathFollow2D" parent="."]

transform/pos = Vector2( 682.961, 124.574 )
transform/rot = -173.419
offset = 0.0
h_offset = 0.0
v_offset = 0.0
rotate = true
cubic_interp = true
loop = true
lookahead = 4.0
script/script = ExtResource( 1 )


